<svg version="1.1" xmlns="http://www.w3.org/2000/svg" xmlns:xlink="http://www.w3.org/1999/xlink" width="32" height="32" viewBox="0 0 32 32">
<path d="M23.868 27.404h-16.579c-1.569 0-2.844-1.265-2.844-2.819v-16.432c0-1.555 1.276-2.819 2.844-2.819h16.579c1.568 0 2.844 1.265 2.844 2.819v16.432c0 1.555-1.276 2.819-2.844 2.819v0zM7.289 7.487c-0.37 0-0.672 0.299-0.672 0.666v16.432c0 0.367 0.302 0.666 0.672 0.666h16.579c0.37 0 0.672-0.299 0.672-0.666v-16.432c0-0.367-0.301-0.666-0.672-0.666h-16.579z"></path>
<path d="M17.903 20.323c0 0.079-0.034 0.153-0.093 0.208-0.866 0.808-1.485 1.312-1.89 1.541-0.433 0.246-0.789 0.365-1.090 0.365-0.297 0-0.542-0.097-0.724-0.293-0.176-0.186-0.266-0.439-0.266-0.75 0-0.795 0.454-2.642 1.391-5.644 0.015-0.052 0.027-0.1 0.035-0.146-0.035 0.017-0.075 0.038-0.121 0.066-0.078 0.048-0.31 0.228-0.994 0.89-0.102 0.101-0.265 0.109-0.381 0.023l-0.406-0.311c-0.063-0.047-0.105-0.122-0.111-0.203-0.007-0.079 0.021-0.16 0.075-0.219 0.627-0.687 1.216-1.185 1.745-1.481 0.555-0.309 1.023-0.461 1.431-0.461 0.265 0 0.479 0.065 0.636 0.196 0.171 0.14 0.261 0.335 0.261 0.568 0 0.151-0.073 0.543-0.607 2.319-0.764 2.538-0.945 3.459-0.958 3.778 0.144-0.085 0.486-0.325 1.215-1.005 0.113-0.106 0.291-0.105 0.403 0.003l0.358 0.347c0.056 0.054 0.088 0.131 0.088 0.209v0z"></path>
<path d="M17.861 11.338c0 0.339-0.122 0.643-0.358 0.9-0.243 0.263-0.526 0.398-0.843 0.398-0.261 0-0.493-0.096-0.671-0.28-0.174-0.18-0.264-0.417-0.264-0.699 0-0.348 0.115-0.647 0.343-0.893 0.234-0.251 0.521-0.38 0.849-0.38 0.266 0 0.5 0.095 0.676 0.276 0.178 0.178 0.268 0.406 0.268 0.678v0z"></path>
<path d="M15.572 31.868l9.416-3.424h-18.831l9.416 3.424z"></path>
</svg>
